sim/top_tb_soc_single_cycle.vcd
$date
	Sat Mar  1 12:00:24 2025
$end
$version
	Icarus Verilog
$end
$timescale
	1ps
$end
$scope module top_tb_soc_single_cycle $end
$var wire 32 ! pc [31:0] $end
$var wire 1 " missaligned_exception $end
$var wire 1 # misaligned_store_exception $end
$var wire 1 $ misaligned_load_exception $end
$var wire 4 % mem_write_req [3:0] $end
$var wire 1 & mem_read_req $end
$var wire 32 ' instruction [31:0] $end
$var wire 1 ( ill_instr_exception $end
$var wire 32 ) WriteData [31:0] $end
$var wire 32 * ReadData [31:0] $end
$var wire 32 + DataADDR [31:0] $end
$var reg 1 , clk $end
$var reg 1 - reset $end
$scope module DUT $end
$var wire 1 , clk $end
$var wire 1 - reset $end
$var wire 32 . pc [31:0] $end
$var wire 1 " missaligned_exception $end
$var wire 1 # misaligned_store_exception $end
$var wire 1 $ misaligned_load_exception $end
$var wire 4 / mem_write_req [3:0] $end
$var wire 1 & mem_read_req $end
$var wire 32 0 instruction [31:0] $end
$var wire 1 ( ill_instr_exception $end
$var wire 32 1 WriteData [31:0] $end
$var wire 32 2 ReadData [31:0] $end
$var wire 32 3 DataADDR [31:0] $end
$scope module IRAM $end
$var wire 32 4 addr [31:0] $end
$var parameter 32 5 COL_NUM $end
$var parameter 32 6 COL_WIDTH $end
$var reg 32 7 rd [31:0] $end
$scope begin $unm_blk_8 $end
$var integer 32 8 i [31:0] $end
$var integer 32 9 j [31:0] $end
$upscope $end
$upscope $end
$scope module RAM $end
$var wire 1 , clk $end
$var wire 32 : word_addr [31:0] $end
$var wire 4 ; we [3:0] $end
$var wire 2 < byte_offset [1:0] $end
$var wire 32 = addr [31:0] $end
$var wire 32 > DATA_IN [31:0] $end
$var parameter 32 ? COL_NUM $end
$var parameter 32 @ COL_WIDTH $end
$var parameter 32 A DEPTH $end
$var parameter 64 B WIDTH $end
$var reg 32 C DATA_OUT [31:0] $end
$var integer 32 D i [31:0] $end
$scope begin $unm_blk_21 $end
$var integer 32 E i [31:0] $end
$var integer 32 F j [31:0] $end
$upscope $end
$upscope $end
$scope module SINGLE_CYCLE_CORE $end
$var wire 32 G DataADDR [31:0] $end
$var wire 32 H ReadData [31:0] $end
$var wire 1 , clk $end
$var wire 32 I instruction [31:0] $end
$var wire 1 J pc_src $end
$var wire 1 - reset $end
$var wire 1 K zero $end
$var wire 5 L writePortSEL [4:0] $end
$var wire 32 M writeBack [31:0] $end
$var wire 32 N targetADDR [31:0] $end
$var wire 1 O reg_write $end
$var wire 5 P readPort2SEL [4:0] $end
$var wire 32 Q readPort2 [31:0] $end
$var wire 5 R readPort1SEL [4:0] $end
$var wire 32 S readPort1 [31:0] $end
$var wire 32 T pc_out [31:0] $end
$var wire 32 U pc_next [31:0] $end
$var wire 1 " missaligned_exception $end
$var wire 1 # misaligned_store_exception $end
$var wire 1 $ misaligned_load_exception $end
$var wire 4 V mem_write_req [3:0] $end
$var wire 1 W mem_write $end
$var wire 1 & mem_read_req $end
$var wire 1 X mem_read $end
$var wire 1 Y jump $end
$var wire 3 Z immd_type [2:0] $end
$var wire 32 [ immd_ext [31:0] $end
$var wire 1 ( ill_instr_exception $end
$var wire 1 \ branchTaken $end
$var wire 1 ] branch $end
$var wire 1 ^ aluSRCB $end
$var wire 1 _ aluSRCA $end
$var wire 32 ` aluRESULT [31:0] $end
$var wire 32 a aluPortB [31:0] $end
$var wire 32 b aluPortA [31:0] $end
$var wire 4 c aluOP [3:0] $end
$var wire 32 d addrADDERPortA [31:0] $end
$var wire 32 e WriteData [31:0] $end
$var wire 2 f WriteBackSRC [1:0] $end
$var wire 32 g ReadDataLSU_out [31:0] $end
$var wire 32 h BranchADDR [31:0] $end
$var wire 1 i AddrAddSRC $end
$scope module ADDRESS_ADDER $end
$var wire 32 j srcB [31:0] $end
$var wire 32 k srcA [31:0] $end
$var wire 32 l BranchAddr [31:0] $end
$upscope $end
$scope module ALU $end
$var wire 1 K zero $end
$var wire 32 m srcB [31:0] $end
$var wire 32 n srcA [31:0] $end
$var wire 4 o aluOP [3:0] $end
$var reg 32 p aluRESULT [31:0] $end
$upscope $end
$scope module BRANCH_UNIT $end
$var wire 32 q BranchAddr [31:0] $end
$var wire 1 \ branchTaken $end
$var wire 3 r branchType [2:0] $end
$var wire 1 s equal $end
$var wire 1 " missaligned_exception $end
$var wire 1 t valid $end
$var wire 1 u unsigned_comparison $end
$var wire 32 v targetADDR [31:0] $end
$var wire 32 w srcB [31:0] $end
$var wire 32 x srcA [31:0] $end
$var wire 1 y signed_comparison $end
$var wire 1 Y jump $end
$var wire 1 z is_aligned $end
$var wire 1 ] branch $end
$var reg 1 { takeBranch $end
$upscope $end
$scope module CU $end
$var wire 32 | instruction [31:0] $end
$var wire 7 } opcode [6:0] $end
$var wire 7 ~ funct7 [6:0] $end
$var wire 3 !" funct3 [2:0] $end
$var parameter 32 "" A_EXTENSION $end
$var parameter 32 #" C_EXTENSION $end
$var parameter 32 $" M_EXTENSION $end
$var reg 1 i AddrAddSRC $end
$var reg 2 %" WriteBackSRC [1:0] $end
$var reg 4 &" aluOP [3:0] $end
$var reg 1 _ aluSRCA $end
$var reg 1 ^ aluSRCB $end
$var reg 1 ] branch $end
$var reg 1 ( ill_instr_exception $end
$var reg 3 '" immd_type [2:0] $end
$var reg 1 Y jump $end
$var reg 1 X mem_read $end
$var reg 1 W mem_write $end
$var reg 1 (" mul_div_op $end
$var reg 1 O reg_write $end
$upscope $end
$scope module IMMD_GEN $end
$var wire 3 )" ImmSrc [2:0] $end
$var wire 25 *" instruction [31:7] $end
$var reg 32 +" Immd [31:0] $end
$upscope $end
$scope module LSU $end
$var wire 2 ," Address [1:0] $end
$var wire 32 -" LoadData [31:0] $end
$var wire 3 ." funct3 [2:0] $end
$var wire 1 X mem_read $end
$var wire 1 & mem_read_req $end
$var wire 1 W mem_write $end
$var wire 1 /" mem_write_valid $end
$var wire 1 $ misaligned_load_exception $end
$var wire 1 # misaligned_store_exception $end
$var wire 32 0" StoreData [31:0] $end
$var reg 32 1" LoadDataOut [31:0] $end
$var reg 32 2" StoreDataOut [31:0] $end
$var reg 1 3" is_aligned $end
$var reg 4 4" mem_write_req [3:0] $end
$upscope $end
$scope module PC $end
$var wire 32 5" BranchADDR [31:0] $end
$var wire 1 , clk $end
$var wire 1 6" en_n $end
$var wire 32 7" pc_inc [31:0] $end
$var wire 1 J pc_src $end
$var wire 1 - reset $end
$var wire 32 8" pc_next [31:0] $end
$var parameter 32 9" is_compressed $end
$var reg 32 :" pc [31:0] $end
$upscope $end
$scope module REGFILE $end
$var wire 1 O WE $end
$var wire 1 , clk $end
$var wire 5 ;" readPort1SEL [4:0] $end
$var wire 5 <" readPort2SEL [4:0] $end
$var wire 5 =" writePortSEL [4:0] $end
$var wire 32 >" writePort [31:0] $end
$var wire 32 ?" readPort2 [31:0] $end
$var wire 32 @" readPort1 [31:0] $end
$var integer 32 A" i [31:0] $end
$upscope $end
$scope module addr_adder_inputA_mux $end
$var wire 1 i SEL $end
$var wire 32 B" in_a [31:0] $end
$var wire 32 C" in_b [31:0] $end
$var wire 32 D" out [31:0] $end
$var parameter 32 E" WIDTH $end
$upscope $end
$scope module alu_portA_mux $end
$var wire 1 _ SEL $end
$var wire 32 F" in_a [31:0] $end
$var wire 32 G" in_b [31:0] $end
$var wire 32 H" out [31:0] $end
$var parameter 32 I" WIDTH $end
$upscope $end
$scope module alu_portB_mux $end
$var wire 1 ^ SEL $end
$var wire 32 J" in_a [31:0] $end
$var wire 32 K" in_b [31:0] $end
$var wire 32 L" out [31:0] $end
$var parameter 32 M" WIDTH $end
$upscope $end
$scope module regfile_write_src $end
$var wire 2 N" SEL [1:0] $end
$var wire 32 O" in_a [31:0] $end
$var wire 32 P" in_b [31:0] $end
$var wire 32 Q" in_c [31:0] $end
$var wire 32 R" out [31:0] $end
$var parameter 32 S" WIDTH $end
$upscope $end
$upscope $end
$upscope $end
$upscope $end
$enddefinitions $end
$comment Show the parameter values. $end
$dumpall
b100000 S"
b100000 M"
b100000 I"
b100000 E"
b0 9"
b0 $"
b0 #"
b0 ""
b100000 B
b1111 A
b1000 @
b100 ?
b1000 6
b100 5
$end
#0
$dumpvars
bx R"
bx Q"
b0 P"
bx O"
b0 N"
bx L"
bx K"
bx J"
bx H"
bx G"
bx F"
bx D"
bx C"
bx B"
b100000 A"
bx @"
bx ?"
bx >"
bx ="
bx <"
bx ;"
bx :"
bx 8"
b100 7"
06"
bx 5"
b0 4"
03"
b0 2"
b0 1"
bx 0"
0/"
bx ."
bx -"
bx ,"
bx +"
bx *"
b0 )"
0("
b0 '"
b0 &"
b0 %"
bx !"
bx ~
bx }
bx |
0{
xz
xy
bx x
bx w
bx v
xu
0t
xs
bx r
bx q
bx p
b0 o
bx n
bx m
bx l
bx k
bx j
1i
bx h
b0 g
b0 f
b0 e
bx d
b0 c
bx b
bx a
bx `
1_
0^
0]
0\
bx [
b0 Z
0Y
0X
0W
b0 V
bx U
bx T
bx S
bx R
bx Q
bx P
0O
bx N
bx M
bx L
xK
1J
bx I
bx H
bx G
b100 F
b1000000000000000 E
bx D
bx C
b0 >
bx =
bx <
b0 ;
b0xxxxxxxxxxxxxxxxxxxxxxxxxxxxxx :
b100 9
b1111111111 8
bx 7
bx 4
bx 3
bx 2
b0 1
bx 0
b0 /
bx .
1-
0,
bx +
bx *
b0 )
x(
bx '
0&
b0 %
0$
0#
0"
bx !
$end
#5000
0s
1z
0K
b100000000000000 M
b100000000000000 >"
b100000000000000 R"
b0 ,"
b0 <
b1000000000000 :
1y
1u
b0 b
b0 n
b0 x
b0 H"
b100000000000000 N
b100000000000000 v
b100000000000000 5"
b100000000000000 +
b100000000000000 3
b100000000000000 =
b100000000000000 G
b100000000000000 `
b100000000000000 p
b100000000000000 O"
b100000000000000 a
b100000000000000 m
b100000000000000 w
b100000000000000 L"
b0 Q
b0 0"
b0 ?"
b0 J"
b0 S
b0 @"
b0 B"
b0 G"
1{
13"
b100000000000000 h
b100000000000000 l
b100000000000000 q
b100000000000000 [
b100000000000000 j
b100000000000000 +"
b100000000000000 K"
1O
b1010 c
b1010 o
b1010 &"
1^
b11 Z
b11 '"
b11 )"
0(
b0 ~
b0 P
b0 <"
b0 R
b0 ;"
b100 r
b100 ."
b100 !"
b10 L
b10 ="
b10000010 *"
b110111 }
b100 U
b100 8"
b100 Q"
b0 d
b0 k
b0 D"
b100000100110111 '
b100000100110111 0
b100000100110111 7
b100000100110111 I
b100000100110111 |
b0 !
b0 .
b0 4
b0 T
b0 :"
b0 C"
b0 F"
b100 D
1,
#10000
0,
0-
#15000
b11111111111100 M
b11111111111100 >"
b11111111111100 R"
b111111111111 :
b11111111111100 +
b11111111111100 3
b11111111111100 =
b11111111111100 G
b11111111111100 `
b11111111111100 p
b11111111111100 O"
b100000000000000 b
b100000000000000 n
b100000000000000 x
b100000000000000 H"
0y
b11111111111111111111111111111100 a
b11111111111111111111111111111100 m
b11111111111111111111111111111100 w
b11111111111111111111111111111100 L"
b100000000000000 S
b100000000000000 @"
b100000000000000 B"
b100000000000000 G"
b11111111111111111111111111111100 [
b11111111111111111111111111111100 j
b11111111111111111111111111111100 +"
b11111111111111111111111111111100 K"
0{
b0 Z
b0 '"
b0 )"
1O
1^
b0 c
b0 o
b0 &"
b0 N
b0 v
b0 5"
b1111111 ~
b10 R
b10 ;"
b11100 P
b11100 <"
b1111111111000001000000010 *"
b0 r
b0 ."
b0 !"
b10011 }
b1000 U
b1000 8"
b1000 Q"
b0 h
b0 l
b0 q
b100 d
b100 k
b100 D"
b11111111110000010000000100010011 '
b11111111110000010000000100010011 0
b11111111110000010000000100010011 7
b11111111110000010000000100010011 I
b11111111110000010000000100010011 |
b0 *
b0 2
b0 C
b0 H
b0 -"
b100 !
b100 .
b100 4
b100 T
b100 :"
b100 C"
b100 F"
b100 D
1,
#20000
b11111111111000 M
b11111111111000 >"
b11111111111000 R"
b111111111110 :
b11111111111000 +
b11111111111000 3
b11111111111000 =
b11111111111000 G
b11111111111000 `
b11111111111000 p
b11111111111000 O"
b11111111111100 b
b11111111111100 n
b11111111111100 x
b11111111111100 H"
b11111111111100 S
b11111111111100 @"
b11111111111100 B"
b11111111111100 G"
0,
#25000
1{
1s
1K
b0 M
b0 >"
b0 R"
b0 :
b0 +
b0 3
b0 =
b0 G
b0 `
b0 p
b0 O"
b0 b
b0 n
b0 x
b0 H"
0u
b0 a
b0 m
b0 w
b0 L"
1O
1^
b0 S
b0 @"
b0 B"
b0 G"
b0 [
b0 j
b0 +"
b0 K"
b1000 N
b1000 v
b1000 5"
b0 ~
b0 R
b0 ;"
b0 P
b0 <"
b11111 L
b11111 ="
b11111 *"
b1100 U
b1100 8"
b1100 Q"
b1000 h
b1000 l
b1000 q
b1000 d
b1000 k
b1000 D"
b111110010011 '
b111110010011 0
b111110010011 7
b111110010011 I
b111110010011 |
b1000 !
b1000 .
b1000 4
b1000 T
b1000 :"
b1000 C"
b1000 F"
b100 D
1,
#30000
0,
#35000
0s
0K
b10101011110011011110000000000000 M
b10101011110011011110000000000000 >"
b10101011110011011110000000000000 R"
b101010111100110111100000000000 :
b10101011110011011110000000000000 +
b10101011110011011110000000000000 3
b10101011110011011110000000000000 =
b10101011110011011110000000000000 G
b10101011110011011110000000000000 `
b10101011110011011110000000000000 p
b10101011110011011110000000000000 O"
1u
b10101011110011011110000000000000 a
b10101011110011011110000000000000 m
b10101011110011011110000000000000 w
b10101011110011011110000000000000 L"
b10101011110011011110000000000000 [
b10101011110011011110000000000000 j
b10101011110011011110000000000000 +"
b10101011110011011110000000000000 K"
1{
b1010 c
b1010 o
b1010 &"
b11 Z
b11 '"
b11 )"
1O
1^
b10101011110011011110000000001100 N
b10101011110011011110000000001100 v
b10101011110011011110000000001100 5"
b1010101 ~
b11100 P
b11100 <"
b11011 R
b11011 ;"
b101 L
b101 ="
b1010101111001101111000101 *"
b110 r
b110 ."
b110 !"
b110111 }
b10000 U
b10000 8"
b10000 Q"
b10101011110011011110000000001100 h
b10101011110011011110000000001100 l
b10101011110011011110000000001100 q
b1100 d
b1100 k
b1100 D"
b10101011110011011110001010110111 '
b10101011110011011110001010110111 0
b10101011110011011110001010110111 7
b10101011110011011110001010110111 I
b10101011110011011110001010110111 |
b1100 !
b1100 .
b1100 4
b1100 T
b1100 :"
b1100 C"
b1100 F"
b100 D
1,
#40000
0,
#45000
b10101011110011011110000000010000 N
b10101011110011011110000000010000 v
b10101011110011011110000000010000 5"
b110 L
b110 ="
b1010101111001101111000110 *"
b10100 U
b10100 8"
b10100 Q"
b10101011110011011110000000010000 h
b10101011110011011110000000010000 l
b10101011110011011110000000010000 q
b10000 d
b10000 k
b10000 D"
b10101011110011011110001100110111 '
b10101011110011011110001100110111 0
b10101011110011011110001100110111 7
b10101011110011011110001100110111 I
b10101011110011011110001100110111 |
b10000 !
b10000 .
b10000 4
b10000 T
b10000 :"
b10000 C"
b10000 F"
bx *
bx 2
bx C
bx H
bx -"
b100 D
1,
#50000
0,
#55000
1J
0{
1s
1K
0\
0t
b0 M
b0 >"
b0 R"
b0 :
0u
b10101011110011011110000000000000 b
b10101011110011011110000000000000 n
b10101011110011011110000000000000 x
b10101011110011011110000000000000 H"
b0 +
b0 3
b0 =
b0 G
b0 `
b0 p
b0 O"
b10101011110011011110000000000000 S
b10101011110011011110000000000000 @"
b10101011110011011110000000000000 B"
b10101011110011011110000000000000 G"
b10101011110011011110000000000000 Q
b10101011110011011110000000000000 0"
b10101011110011011110000000000000 ?"
b10101011110011011110000000000000 J"
b1101000100 [
b1101000100 j
b1101000100 +"
b1101000100 K"
1]
b10 Z
b10 '"
b10 )"
0O
0^
b1 c
b1 o
b1 &"
b1101011000 N
b1101011000 v
b1101011000 5"
b11010 ~
b101 R
b101 ;"
b110 P
b110 <"
b100 L
b100 ="
b11010001100010100100100 *"
b1 r
b1 ."
b1 !"
b1100011 }
b11000 U
b11000 8"
b11000 Q"
b1101011000 h
b1101011000 l
b1101011000 q
b10100 d
b10100 k
b10100 D"
b110100011000101001001001100011 '
b110100011000101001001001100011 0
b110100011000101001001001100011 7
b110100011000101001001001100011 I
b110100011000101001001001100011 |
b10100 !
b10100 .
b10100 4
b10100 T
b10100 :"
b10100 C"
b10100 F"
b100 D
1,
#60000
0,
#65000
0s
b1 ,"
b1 <
0z
0K
b1 M
b1 >"
b1 R"
b0 :
1u
b0 b
b0 n
b0 x
b0 H"
1y
b1 a
b1 m
b1 w
b1 L"
b1 +
b1 3
b1 =
b1 G
b1 `
b1 p
b1 O"
b0 S
b0 @"
b0 B"
b0 G"
b0 Q
b0 0"
b0 ?"
b0 J"
0{
b1 [
b1 j
b1 +"
b1 K"
1O
1^
b0 Z
b0 '"
b0 )"
b0 c
b0 o
b0 &"
0]
b11001 N
b11001 v
b11001 5"
b0 ~
b11111 R
b11111 ;"
b1 P
b1 <"
b0 r
b0 ."
b0 !"
b11111 L
b11111 ="
b11111100011111 *"
b10011 }
b11100 U
b11100 8"
b11100 Q"
b11001 h
b11001 l
b11001 q
b11000 d
b11000 k
b11000 D"
b111111000111110010011 '
b111111000111110010011 0
b111111000111110010011 7
b111111000111110010011 I
b111111000111110010011 |
b11000 !
b11000 .
b11000 4
b11000 T
b11000 :"
b11000 C"
b11000 F"
b0 *
b0 2
b0 C
b0 H
b0 -"
b100 D
1,
#70000
1{
1s
b10 M
b10 >"
b10 R"
b10 ,"
b10 <
b10 +
b10 3
b10 =
b10 G
b10 `
b10 p
b10 O"
0y
0u
b1 b
b1 n
b1 x
b1 H"
b1 S
b1 @"
b1 B"
b1 G"
0,
#75000
0s
b1000000011100 M
b1000000011100 >"
b1000000011100 R"
b0 ,"
b0 <
b10000000111 :
1z
b1000000011100 +
b1000000011100 3
b1000000011100 =
b1000000011100 G
b1000000011100 `
b1000000011100 p
b1000000011100 O"
b11100 b
b11100 n
b11100 x
b11100 H"
1y
1u
b1000000000000 a
b1000000000000 m
b1000000000000 w
b1000000000000 L"
b0 S
b0 @"
b0 B"
b0 G"
b1000000000000 [
b1000000000000 j
b1000000000000 +"
b1000000000000 K"
1{
0_
b11 Z
b11 '"
b11 )"
1O
1^
b1000000011100 N
b1000000011100 v
b1000000011100 5"
b0 P
b0 <"
b0 R
b0 ;"
b101 L
b101 ="
b100101 *"
b1 r
b1 ."
b1 !"
b10111 }
b100000 U
b100000 8"
b100000 Q"
b1000000011100 h
b1000000011100 l
b1000000011100 q
b11100 d
b11100 k
b11100 D"
b1001010010111 '
b1001010010111 0
b1001010010111 7
b1001010010111 I
b1001010010111 |
b11100 !
b11100 .
b11100 4
b11100 T
b11100 :"
b11100 C"
b11100 F"
b100 D
1,
#80000
0,
#85000
03"
b1 ,"
b1 <
b1100 a
b1100 m
b1100 w
b1100 L"
0y
0u
b1 M
b1 >"
b1 R"
b0 :
b1000000011100 S
b1000000011100 @"
b1000000011100 B"
b1000000011100 G"
b1100 [
b1100 j
b1100 +"
b1100 K"
1{
b110 c
b110 o
b110 &"
b0 Z
b0 '"
b0 )"
1O
1^
1_
b101100 N
b101100 v
b101100 5"
b1 +
b1 3
b1 =
b1 G
b1 `
b1 p
b1 O"
b1100 P
b1100 <"
b101 R
b101 ;"
b11000010110100101 *"
b101 r
b101 ."
b101 !"
b10011 }
b100100 U
b100100 8"
b100100 Q"
b101100 h
b101100 l
b101100 q
b100000 d
b100000 k
b100000 D"
b1000000011100 b
b1000000011100 n
b1000000011100 x
b1000000011100 H"
b110000101101001010010011 '
b110000101101001010010011 0
b110000101101001010010011 7
b110000101101001010010011 I
b110000101101001010010011 |
b100000 !
b100000 .
b100000 4
b100000 T
b100000 :"
b100000 C"
b100000 F"
b100 D
1,
#90000
13"
1K
b0 M
b0 >"
b0 R"
b0 ,"
b0 <
0{
b0 +
b0 3
b0 =
b0 G
b0 `
b0 p
b0 O"
1y
1u
b1 b
b1 n
b1 x
b1 H"
b1 S
b1 @"
b1 B"
b1 G"
0,
#95000
0K
b1 M
b1 >"
b1 R"
b1 ,"
b1 <
b0 :
0y
0u
b0 a
b0 m
b0 w
b0 L"
b1 +
b1 3
b1 =
b1 G
b1 `
b1 p
b1 O"
b1100110100 [
b1100110100 j
b1100110100 +"
b1100110100 K"
b10 Z
b10 '"
b10 )"
1]
0O
0^
b1 c
b1 o
b1 &"
b1101011000 N
b1101011000 v
b1101011000 5"
b11001 ~
b0 P
b0 <"
b0 r
b0 ."
b0 !"
b10100 L
b10100 ="
b11001000000010100010100 *"
b1100011 }
b101000 U
b101000 8"
b101000 Q"
b1101011000 h
b1101011000 l
b1101011000 q
b100100 d
b100100 k
b100100 D"
b110010000000101000101001100011 '
b110010000000101000101001100011 0
b110010000000101000101001100011 7
b110010000000101000101001100011 I
b110010000000101000101001100011 |
b100100 !
b100100 .
b100100 4
b100100 T
b100100 :"
b100100 C"
b100100 F"
b100 D
1,
#100000
0,
#105000
1{
1s
b10 M
b10 >"
b10 R"
b10 ,"
b10 <
0z
b10 +
b10 3
b10 =
b10 G
b10 `
b10 p
b10 O"
b1 a
b1 m
b1 w
b1 L"
b1 [
b1 j
b1 +"
b1 K"
1O
1^
b0 Z
b0 '"
b0 )"
b0 c
b0 o
b0 &"
0]
b101001 N
b101001 v
b101001 5"
b0 ~
b11111 R
b11111 ;"
b1 P
b1 <"
b11111 L
b11111 ="
b11111100011111 *"
b10011 }
b101100 U
b101100 8"
b101100 Q"
b101001 h
b101001 l
b101001 q
b101000 d
b101000 k
b101000 D"
b111111000111110010011 '
b111111000111110010011 0
b111111000111110010011 7
b111111000111110010011 I
b111111000111110010011 |
b101000 !
b101000 .
b101000 4
b101000 T
b101000 :"
b101000 C"
b101000 F"
b100 D
1,
#110000
0{
0s
b11 M
b11 >"
b11 R"
b11 ,"
b11 <
b11 +
b11 3
b11 =
b11 G
b11 `
b11 p
b11 O"
b10 b
b10 n
b10 x
b10 H"
b10 S
b10 @"
b10 B"
b10 G"
0,
#115000
b1100100 M
b1100100 >"
b1100100 R"
b0 ,"
b0 <
b11001 :
b1100100 +
b1100100 3
b1100100 =
b1100100 G
b1100100 `
b1100100 p
b1100100 O"
1z
b0 b
b0 n
b0 x
b0 H"
1y
1u
b1100100 a
b1100100 m
b1100100 w
b1100100 L"
1O
1^
b0 S
b0 @"
b0 B"
b0 G"
b1100100 [
b1100100 j
b1100100 +"
b1100100 K"
b10010000 N
b10010000 v
b10010000 5"
b11 ~
b100 P
b100 <"
b0 R
b0 ;"
b101 L
b101 ="
b11001000000000000101 *"
b110000 U
b110000 8"
b110000 Q"
b10010000 h
b10010000 l
b10010000 q
b101100 d
b101100 k
b101100 D"
b110010000000000001010010011 '
b110010000000000001010010011 0
b110010000000000001010010011 7
b110010000000000001010010011 I
b110010000000000001010010011 |
b101100 !
b101100 .
b101100 4
b101100 T
b101100 :"
b101100 C"
b101100 F"
b100 D
1,
#120000
0,
#125000
b100101100 M
b100101100 >"
b100101100 R"
b1001011 :
b100101100 +
b100101100 3
b100101100 =
b100101100 G
b100101100 `
b100101100 p
b100101100 O"
b1100100 b
b1100100 n
b1100100 x
b1100100 H"
b11001000 a
b11001000 m
b11001000 w
b11001000 L"
1O
1^
b1100100 S
b1100100 @"
b1100100 B"
b1100100 G"
b11001000 [
b11001000 j
b11001000 +"
b11001000 K"
b11111000 N
b11111000 v
b11111000 5"
b110 ~
b1000 P
b1000 <"
b101 R
b101 ;"
b110 L
b110 ="
b110010000010100000110 *"
b110100 U
b110100 8"
b110100 Q"
b11111000 h
b11111000 l
b11111000 q
b110000 d
b110000 k
b110000 D"
b1100100000101000001100010011 '
b1100100000101000001100010011 0
b1100100000101000001100010011 7
b1100100000101000001100010011 I
b1100100000101000001100010011 |
b110000 !
b110000 .
b110000 4
b110000 T
b110000 :"
b110000 C"
b110000 F"
b100 D
1,
#130000
0,
#135000
b0 b
b0 n
b0 x
b0 H"
b100101100 a
b100101100 m
b100101100 w
b100101100 L"
1O
1^
b0 S
b0 @"
b0 B"
b0 G"
b100101100 [
b100101100 j
b100101100 +"
b100101100 K"
b101100000 N
b101100000 v
b101100000 5"
b1001 ~
b1100 P
b1100 <"
b0 R
b0 ;"
b111 L
b111 ="
b1001011000000000000111 *"
b111000 U
b111000 8"
b111000 Q"
b101100000 h
b101100000 l
b101100000 q
b110100 d
b110100 k
b110100 D"
b10010110000000000001110010011 '
b10010110000000000001110010011 0
b10010110000000000001110010011 7
b10010110000000000001110010011 I
b10010110000000000001110010011 |
b110100 !
b110100 .
b110100 4
b110100 T
b110100 :"
b110100 C"
b110100 F"
b100 D
1,
#140000
0,
#145000
1J
1s
1K
0\
b0 M
b0 >"
b0 R"
b0 :
0t
0y
0u
b100101100 b
b100101100 n
b100101100 x
b100101100 H"
b0 +
b0 3
b0 =
b0 G
b0 `
b0 p
b0 O"
b100101100 S
b100101100 @"
b100101100 B"
b100101100 G"
b100101100 Q
b100101100 0"
b100101100 ?"
b100101100 J"
0{
b1100100000 [
b1100100000 j
b1100100000 +"
b1100100000 K"
b1 c
b1 o
b1 &"
b10 Z
b10 '"
b10 )"
1]
0O
0^
b1101011000 N
b1101011000 v
b1101011000 5"
b11001 ~
b110 R
b110 ;"
b111 P
b111 <"
b1 r
b1 ."
b1 !"
b0 L
b0 ="
b11001001110011000100000 *"
b1100011 }
b111100 U
b111100 8"
b111100 Q"
b1101011000 h
b1101011000 l
b1101011000 q
b111000 d
b111000 k
b111000 D"
b110010011100110001000001100011 '
b110010011100110001000001100011 0
b110010011100110001000001100011 7
b110010011100110001000001100011 I
b110010011100110001000001100011 |
b111000 !
b111000 .
b111000 4
b111000 T
b111000 :"
b111000 C"
b111000 F"
b100 D
1,
#150000
0,
#155000
0s
b11 ,"
b11 <
0z
0K
b11 M
b11 >"
b11 R"
b0 :
b10 b
b10 n
b10 x
b10 H"
b1 a
b1 m
b1 w
b1 L"
b11 +
b11 3
b11 =
b11 G
b11 `
b11 p
b11 O"
b0 Q
b0 0"
b0 ?"
b0 J"
b10 S
b10 @"
b10 B"
b10 G"
0{
b1 [
b1 j
b1 +"
b1 K"
1O
1^
b0 Z
b0 '"
b0 )"
b0 c
b0 o
b0 &"
0]
b111101 N
b111101 v
b111101 5"
b0 ~
b1 P
b1 <"
b11111 R
b11111 ;"
b0 r
b0 ."
b0 !"
b11111 L
b11111 ="
b11111100011111 *"
b10011 }
b1000000 U
b1000000 8"
b1000000 Q"
b111101 h
b111101 l
b111101 q
b111100 d
b111100 k
b111100 D"
b111111000111110010011 '
b111111000111110010011 0
b111111000111110010011 7
b111111000111110010011 I
b111111000111110010011 |
b111100 !
b111100 .
b111100 4
b111100 T
b111100 :"
b111100 C"
b111100 F"
b100 D
1,
#160000
b100 M
b100 >"
b100 R"
b0 ,"
b0 <
b1 :
b100 +
b100 3
b100 =
b100 G
b100 `
b100 p
b100 O"
b11 b
b11 n
b11 x
b11 H"
b11 S
b11 @"
b11 B"
b11 G"
0,
#165000
b1010 M
b1010 >"
b1010 R"
b10 ,"
b10 <
b10 :
b1010 +
b1010 3
b1010 =
b1010 G
b1010 `
b1010 p
b1010 O"
b0 b
b0 n
b0 x
b0 H"
1y
1u
b1010 a
b1010 m
b1010 w
b1010 L"
b0 S
b0 @"
b0 B"
b0 G"
b1010 [
b1010 j
b1010 +"
b1010 K"
b1001010 N
b1001010 v
b1001010 5"
b1010 P
b1010 <"
b0 R
b0 ;"
b101 L
b101 ="
b10100000000000101 *"
b1000100 U
b1000100 8"
b1000100 Q"
b1001010 h
b1001010 l
b1001010 q
b1000000 d
b1000000 k
b1000000 D"
b101000000000001010010011 '
b101000000000001010010011 0
b101000000000001010010011 7
b101000000000001010010011 I
b101000000000001010010011 |
b1000000 !
b1000000 .
b1000000 4
b1000000 T
b1000000 :"
b1000000 C"
b1000000 F"
b100 D
1,
#170000
0,
#175000
b1 M
b1 >"
b1 R"
b1 ,"
b1 <
b0 :
b1010 b
b1010 n
b1010 x
b1010 H"
b1 +
b1 3
b1 =
b1 G
b1 `
b1 p
b1 O"
b1011 a
b1011 m
b1011 w
b1011 L"
b1010 S
b1010 @"
b1010 B"
b1010 G"
03"
b11 c
b11 o
b11 &"
1O
1^
b1011 [
b1011 j
b1011 +"
b1011 K"
b1001111 N
b1001111 v
b1001111 5"
b1011 P
b1011 <"
b101 R
b101 ;"
b10 r
b10 ."
b10 !"
b110 L
b110 ="
b10110010101000110 *"
b1001000 U
b1001000 8"
b1001000 Q"
b1001111 h
b1001111 l
b1001111 q
b1000100 d
b1000100 k
b1000100 D"
b101100101010001100010011 '
b101100101010001100010011 0
b101100101010001100010011 7
b101100101010001100010011 I
b101100101010001100010011 |
b1000100 !
b1000100 .
b1000100 4
b1000100 T
b1000100 :"
b1000100 C"
b1000100 F"
b100 D
1,
#180000
0,
